Tidy Anomaly Detection • anomalize
…
#> $anomaly_details$outlier_vals
#>  [1] -8518.886 -7779.522 -6293.275 -6218.430  5557.429 -5477.838  4619.824
#>  [8] -4553.173  4240.767 -4136.721  3804.789  3626.129 -3522.194  3494.339
#> [15]  3486.598  3477.376  3385.065 -3381.355  3347.284
#> 
#> $anomaly_details$outlier_direction
#>  [1] "Down" "Down" "Down" "Down" "Up"   "Down" "Up"   "Down" "Up"   "Down"
#> [11] "Up"   "Up"   "Down" "Up"   "Up"   "Up"   "Up"   "Down" "Up"  
#> 
#> $anomaly_details$critical_limits
#> limit_lower limit_upper 
#>   -3323.425    3310.268 
#> 
#> $anomaly_details$outlier_report
#> # A tibble: 85 x 7
#>     rank index  value limit_lower limit_upper outlier direction
#>    <dbl> <dbl>  <dbl>       <dbl>       <dbl> <chr>   <chr>    
#>  1    1.  419. -8519.      -3323.       3310. Yes     Down     
#>  2    2.  405. -7780.      -3323.       3310. Yes     Down     
#>  3    3.  370. -6293.      -3323.       3310. Yes     Down     
#>  4    4.  420. -6218.      -3323.       3310. Yes     Down     
#>  5    5.  303.  5557.      -3323.       3310. Yes     Up       
#>  6    6.  406. -5478.      -3323.       3310. Yes     Down     
#>  7    7.  250.  4620.      -3323.       3310. Yes     Up       
#>  8    8.  366. -4553.      -3323.       3310. Yes     Down     
#>  9    9.  318.  4241.      -3323.       3310. Yes     Up       
#> 10   10.  244. -4137.      -3323.       3310. Yes     Down     
#> # ... with 75 more rows
…
