Reduce Forecast Error with Cleaned Anomalies • anomalize
…
# NOTE: timetk now has anomaly detection built in, which 
#  will get the new functionality going forward.
#  Use this script to prevent overwriting legacy anomalize:

anomalize <- anomalize::anomalize
plot_anomalies <- anomalize::plot_anomalies

Here is a short example with the
tidyverse_cran_downloads dataset that comes with
anomalize. We’ll see how we can reduce the forecast
error by 32% simply by repairing anomalies.

tidyverse_cran_downloads
#> # A tibble: 6,375 × 3
#> # Groups:   package [15]
#>    date       count package
#>    <date>     <dbl> <chr>  
#>  1 2017-01-01   873 tidyr  
#>  2 2017-01-02  1840 tidyr  
#>  3 2017-01-03  2495 tidyr  
#>  4 2017-01-04  2906 tidyr  
#>  5 2017-01-05  2847 tidyr  
#>  6 2017-01-06  2756 tidyr  
#>  7 2017-01-07  1439 tidyr  
#>  8 2017-01-08  1556 tidyr  
#>  9 2017-01-09  3678 tidyr  
#> 10 2017-01-10  7086 tidyr  
#> # ℹ 6,365 more rows
…
